-------------------------------------------------------------------------------
Test set: org.opendaylight.controller.pnp.objects.impl.AssistantTest
-------------------------------------------------------------------------------
Tests run: 4, Failures: 0, Errors: 0, Skipped: 0, Time elapsed: 1.037 sec - in org.opendaylight.controller.pnp.objects.impl.AssistantTest
